…
## Dimensions and Measures

``` r
sale_orders <- sales %>%
  group_by(ordernumber, country, year_id, month_id, customername, state, status) %>% 
  summarise(order_sale = sum(sales)) %>%
  ungroup()

sale_orders
#> # A tibble: 307 x 8
#>    ordernumber country year_id month_id customername state status
#>          <dbl> <chr>     <dbl>    <dbl> <chr>        <chr> <chr> 
#>  1       10100 USA        2003        1 Online Diec… NH    Shipp…
#>  2       10101 Germany    2003        1 Blauer See … <NA>  Shipp…
#>  3       10102 USA        2003        1 Vitachrome … NY    Shipp…
#>  4       10103 Norway     2003        1 Baane Mini … <NA>  Shipp…
#>  5       10104 Spain      2003        1 Euro Shoppi… <NA>  Shipp…
#>  6       10105 Denmark    2003        2 Danish Whol… <NA>  Shipp…
#>  7       10106 Italy      2003        2 Rovelli Gif… <NA>  Shipp…
#>  8       10107 USA        2003        2 Land of Toy… NY    Shipp…
#>  9       10108 Philip…    2003        3 Cruz & Sons… <NA>  Shipp…
#> 10       10109 USA        2003        3 Motor Mint … PA    Shipp…
#> # … with 297 more rows, and 1 more variable: order_sale <dbl>
```
…
